{
  "project_info": {
    "project_number": "374911855310",
    "firebase_url": "https://mpp-app-162308.firebaseio.com",
    "project_id": "mpp-app-162308",
    "storage_bucket": "mpp-app-162308.appspot.com"
  },
  "client": [
    {
      "client_info": {
        "mobilesdk_app_id": "1:374911855310:android:2c1d1943611e1f0f",
        "android_client_info": {
          "package_name": "com.mpp.me"
        }
      },
      "oauth_client": [
        {
          "client_id": "374911855310-4k5scurtd4iqt2obahsjdc0g6mnuhhg1.apps.googleusercontent.com",
          "client_type": 3
        }
      ],
      "api_key": [
        {
          "current_key": "AIzaSyDotHcL6GZp2sZ-gjvrdkDARp3b7kGmb8I"
        }
      ],
      "services": {
        "analytics_service": {
          "status": 1
        },
        "appinvite_service": {
          "status": 1,
          "other_platform_oauth_client": []
        },
        "ads_service": {
          "status": 2
        }
      }
    }
  ],
  "configuration_version": "1"
}